<?xml version="1.0" standalone="no"?>
<!DOCTYPE svg PUBLIC "-//W3C//DTD SVG 1.1//EN" "http://www.w3.org/Graphics/SVG/1.1/DTD/svg11.dtd" >
<svg xmlns="http://www.w3.org/2000/svg">
<metadata>
<json>
<![CDATA[
{
	"fontFamily": "cloud3dots",
	"majorVersion": 1,
	"minorVersion": 0,
	"fontURL": "https://gitlab.com/cloud3dots/fonts-c3d/",
	"description": "Cloud3Dots Generic Fonts\nFont generated by IcoMoon.",
	"designer": "Jesus Federico",
	"copyright": "Cloud3Dots",
	"designerURL": "https://www.linkedin.com/in/jesusfederico/",
	"license": "GPL or CC BY NC SA 4.0",
	"licenseURL": "http://creativecommons.org/licenses/by-nc-sa/4.0/",
	"version": "Version 1.0",
	"fontId": "cloud3dots",
	"psName": "cloud3dots",
	"subFamily": "Regular",
	"fullName": "cloud3dots"
}
]]>
</json>
</metadata>
<defs>
<font id="cloud3dots" horiz-adv-x="1024">
<font-face units-per-em="1024" ascent="960" descent="-64" />
<missing-glyph horiz-adv-x="1024" />
<glyph unicode="&#x20;" horiz-adv-x="512" d="" />
<glyph unicode="&#xe900;" glyph-name="cloud3dots" data-tags="cloud3dots_400x400" d="M558.933 698.027c-66.987-14.933-103.68-39.253-134.827-88.747-6.4-10.24-11.947-18.773-12.373-19.627-0.853-0.853-9.387 2.56-19.627 8.107-40.533 20.48-96.853 7.253-127.147-30.293-14.507-18.347-23.467-50.773-19.627-70.827 2.133-13.227 1.707-13.653-20.053-21.333-59.307-21.333-104.107-96.427-93.013-155.307 6.4-33.707 22.187-64.427 42.667-84.48 43.52-41.813 56.747-43.52 340.48-43.52 285.44 0 290.133 0.853 334.507 44.373 72.107 71.68 49.067 208.213-42.24 250.453-25.173 11.947-26.88 14.080-26.88 36.693 0 38.827-22.613 87.893-55.040 119.467-29.44 28.587-47.36 38.827-85.76 49.493-35.413 9.813-55.040 11.093-81.067 5.547zM531.627 550.827c25.173-15.36 29.013-46.080 8.107-66.56-14.933-15.36-30.72-17.92-48.64-8.107-32 17.067-34.56 53.333-5.12 72.96 17.493 11.947 28.16 12.373 45.653 1.707zM467.2 411.307c7.68-8.533 10.667-16.213 10.667-29.44 0-18.773-4.267-26.453-21.333-37.973-13.227-8.533-22.613-8.533-40.533-0.427-25.173 12.373-31.147 43.52-12.373 65.707 9.387 11.52 13.653 13.227 32 13.227 17.493 0 23.040-2.133 31.573-11.093zM616.107 409.173c18.773-22.187 12.8-53.333-12.373-65.707-17.92-8.107-27.307-8.107-40.533 0.427-17.067 11.52-21.333 19.2-21.333 38.827 0 26.88 13.653 39.68 42.24 39.68 18.347 0 22.613-1.707 32-13.227z" />
<glyph unicode="&#xe901;" glyph-name="blue-lodge" data-tags="blue-lodge" d="M493.228 911c-13.995-6.144-27.989-23.211-33.109-40.619-2.389-7.851-5.12-15.019-6.485-16.043-2.389-1.707-34.133-65.877-91.819-186.027-10.923-22.528-38.912-80.213-62.123-128s-44.373-91.819-47.104-97.621l-4.779-10.923-8.875 12.629c-5.12 6.827-19.115 21.163-31.403 32.085l-22.528 19.456h-65.195c-35.84 0-65.195-1.365-65.195-2.731s33.451-35.84 74.411-76.459c40.619-40.619 73.728-75.435 73.045-77.141-0.341-1.365-36.523 32.768-80.213 76.8l-79.189 79.531h-21.163c-11.947 0-21.504-1.365-21.504-2.731 0-4.437 179.2-181.589 183.637-181.589 2.389 0 4.096 1.707 4.096 4.096 0 2.048 0.683 3.072 1.365 2.389 1.707-1.707-2.048-9.899-69.632-148.139-37.205-76.117-64.171-131.755-70.997-145.749-0.683-1.707 0.341-2.731 2.731-2.731 3.072 0 106.496 153.941 233.813 348.843 18.773 28.672 79.872 121.856 136.192 206.848l102.059 154.624 9.216-14.677c5.12-8.192 25.6-40.619 45.056-72.704 19.797-31.744 63.147-102.4 96.939-157.013l61.099-98.987-218.453-220.501-66.56 65.877c-36.523 36.181-86.016 84.651-109.568 107.861l-43.008 41.984-26.283-39.595c-16.384-24.917-25.6-41.984-24.576-45.397 1.024-3.072 61.781-65.536 135.168-138.923l133.12-133.12 137.557 137.557c134.485 134.485 137.216 137.216 142.336 129.707 9.216-13.995 10.923-18.432 3.755-9.557l-6.827 8.533-48.811-47.787c-26.965-26.283-89.429-88.064-138.923-137.216l-90.112-89.088-274.432 277.163-8.875-13.312-9.216-13.653 144.043-144.043c79.531-79.531 146.091-144.384 147.797-144.384 2.048 0 69.291 65.536 149.163 146.091l146.091 145.749 75.435-121.856c70.315-114.005 89.429-141.653 84.309-123.904-1.365 3.755-12.288 28.331-24.576 54.613-54.955 118.101-103.083 228.693-99.669 230.059 6.485 2.048 179.541 175.787 179.541 180.224 0 3.072-5.461 4.437-15.701 4.437h-15.36l-81.92-80.896c-46.421-46.421-82.261-79.531-83.285-77.141-0.683 2.389-0.341 4.437 1.024 4.437 3.072 0 148.821 145.408 150.187 150.187 0.683 2.048-23.552 3.413-66.56 3.413h-67.584l-30.037-29.355c-16.384-16.384-30.379-29.013-31.061-28.331s-17.749 37.547-37.888 81.579c-20.139 44.032-43.008 93.184-50.176 109.227-7.509 16.043-24.235 52.907-37.547 81.92-29.696 66.219-51.541 114.005-65.877 145.408-12.971 28.331-29.696 48.128-45.056 54.613-13.995 6.144-40.619 5.803-53.931 0zM498.348 521.88c-56.661-15.019-88.747-77.141-69.632-133.461 8.192-23.552 32.085-46.763 57.685-56.32 26.283-9.557 69.632-8.533 94.891 2.731l16.043 7.168v31.744c0 40.277 2.048 47.104 12.288 47.104 6.485 0 8.192 1.707 8.192 8.533v8.533h-81.92v-8.192c0-7.168 2.048-8.533 11.264-9.557l10.923-1.024 2.048-66.219-13.653-4.096c-27.989-8.192-54.613 4.779-69.291 34.133-8.192 15.701-9.557 22.869-9.557 46.080 0 23.552 1.365 30.037 9.557 44.373 12.629 22.869 26.624 30.037 54.272 28.672 18.091-1.024 22.869-3.072 31.744-11.264 5.461-5.461 11.947-15.019 14.336-21.163 3.072-8.533 6.144-11.264 12.288-11.264h8.192l-2.731 31.744c-1.024 17.067-2.731 32.427-3.755 34.133-2.731 4.437-14.677 2.389-14.677-2.731 0-6.485-4.096-6.485-25.259 0-19.797 6.144-32.427 6.144-53.248 0.341z" />
</font></defs></svg>